<?xml version="1.0" encoding="utf-8"?>
<!-- Generator: Adobe Illustrator 26.0.3, SVG Export Plug-In . SVG Version: 6.00 Build 0)  -->
<svg version="1.1" id="Layer_1" xmlns="http://www.w3.org/2000/svg" xmlns:xlink="http://www.w3.org/1999/xlink" x="0px" y="0px"
	 viewBox="0 0 300 136" style="enable-background:new 0 0 300 136;" xml:space="preserve">
<style type="text/css">
	.st0{fill:#FFFFFF;}
</style>
<g>
	<g>
		<path class="st0" d="M75.8,65.2c-0.4-0.1-0.5-0.4-0.5-0.7c0-0.3,0.1-0.5,0.5-0.7c7.3-3.8,10.5-11.7,10.5-19.5
			c0-12.2-5.7-23.6-22.8-23.6H35.1c-7.9,0-7.9,5.3-7.9,10.6v72.9c0,5.3,0,10.6,7.9,10.6h29.5c8.6,0,14.2-0.3,20.7-12.2
			c2.3-4.2,3.6-9.4,3.6-14.6C88.8,78.8,85.4,68.4,75.8,65.2z M56.2,38.7c5.3,0,6.6,4.4,6.6,9c0,4.6-1.3,8.9-6.6,8.9
			c-6.6,0-6.6-2.3-6.6-8.9C49.6,41.1,49.6,38.7,56.2,38.7z M56.9,97c-7.3,0-7.3-4-7.3-11.9c0-8,0-11.7,7.3-11.7
			c7.3,0,7.3,5.7,7.3,11.7C64.2,91,63.5,97,56.9,97z M125,20.1c-27.9,0-29.9,15.6-29.9,37c0,3.4,0.1,7,0.1,10.7
			c0,3.7-0.1,7.3-0.1,10.9c0,21.2,2,36.8,29.9,36.8c25.6,0,28.9-15.2,28.9-36.2c0-7-0.4-14.8-0.4-22.8
			C153.5,35.5,151.6,20.1,125,20.1z M131,87.7c0,4,0,9.3-6.6,9.3s-6.6-5.3-6.6-9.3V46c0-3.3,0-7.3,6.6-7.3s6.6,4,6.6,7.3V87.7z
			 M200.3,95.7c-2.8,0-6,0.3-13,0.3c-4.1-0.1-4.1-4.2-4.1-7.4V31.4c0-5.3,0-10.6-7.9-10.6h-6.6c-7.9,0-7.9,5.3-7.9,10.6v72.9
			c0,5.3,0,10.6,7.9,10.6h29.9c7.9,0,7.9-5.3,7.9-10.6v-1.7C206.5,98.6,205.9,95.7,200.3,95.7z M240.1,20.8h-19.9
			c-7.9,0-7.9,5.3-7.9,10.6v72.9c0,5.3,0,10.6,7.9,10.6h19.9c30.4,0,33.1-19.9,33.1-47C273.2,39.3,269.2,20.8,240.1,20.8z
			 M237.4,96.3c-2.4,0-2.6-3.2-2.6-6.6c0-15.6-0.1-31.9-0.1-46.9c0-2.8,0.4-4.1,2.8-4.1c9.9,0,10.6,9.9,10.6,28.5
			C248,88.4,247.4,96.3,237.4,96.3z"/>
	</g>
</g>
</svg>
